…
## Example usage

First load the data that comes with the package: `brenton2018`.

```R
data(brenton2018) # load data from Brenton et al. (2018)
brenton2018       # have a look at data
## A tibble: 881 x 3
##        A     S     P
##    <int> <int> <int>
##  1     4     4    NA
##  2     4     4    NA
##  3     1     1     1
##  4     3     3    NA
##  5     1     1     1
##  6     1     1    NA
##  7     4     4    NA
##  8     2     1     2
##  9     4     4    NA
## 10     2     2    NA
## ... with 871 more rows
```
…
